{
  "ball": { "x": 600, "y": 100 },
  "planets": [
    {
      "x": 500,
      "y": 400,
      "gravity": 9.81,
      "radius": 30,
      "is_target": true,
      "image_name": "earth.png"
    },
    {
      "x": 300,
      "y": 450,
      "gravity": 9.81,
      "radius": 25,
      "is_target": false,
      "image_name": "planet1.png"
    },
    {
      "x": 600,
      "y": 200,
      "gravity": 9.81,
      "radius": 25,
      "is_target": false,
      "image_name": "planet2.png"
    },
    {
      "x": 250,
      "y": 200,
      "gravity": 9.81,
      "radius": 25,
      "is_target": false,
      "image_name": "planet3.png"
    }
  ]
}
